Sun Mar 18 19:26:39 CET 2018: S. Mannem toegevoegd
opdrachten/00 glossary.md
opdrachten/00 glossary.md
opdrachten/01 wat is git.md
opdrachten/02 Merge and conflicts.md
opdrachten/03 Lokaties.md
opdrachten/04 Info.md
Wed Mar 21 19:34:53 CET 2018: MVermeer toegevoegd
Wed Mar 21 19:38:43 CET 2018: Jan van de Lagemaat toegevoegd
wo 21 mrt 2018 19:42:21 CET Richard "Lets git together"
wo 21 mrt 2018 19:42:21 CET Richard
Wed Mar 21 19:59:57 CET 2018: S. Mannem toegevoegd
Wed Mar 21 20:00:15 CET 2018: E. Rijvers toegevoegd
Wed Mar 21 20:23:27 CET 2018: E. Rijvers toegevoegd
Wed Mar 21 19:58:04 CET 2018: E. Hendriks toegevoegd
Wed Mar 21 20:21:40 CET 2018
Wed Mar 21 20:27:18 CET 2018
wo mrt 21 20:36:12 CET 2018: Me toegevoegd
Wed Mar 21 20:35:30 CET 2018
Wed Mar 21 20:39:27 CET 2018
Wed Mar 21 20:42:41 CET 2018
Thu Nov 22 20:25:22 CET 2018: regel 1 ingevoegd
Thu Nov 22 20:25:24 CET 2018: regel 2 ingevoegd
Thu Nov 22 20:25:26 CET 2018: regel 3 ingevoegd
Thu Nov 22 20:25:28 CET 2018: regel 4 ingevoegd
